My first kernel for the Titanic sinking competition
…
It seems like Fare.per.Person below 18 have less chance to survive respect to higher values.

full <- full %>% mutate(Fare.group=as.factor(ifelse(Fare.per.Person>18,"high","low")))

full %>% filter(between(Fare.per.Person,20,35),Survived=="dead",HasCabin==TRUE)

## # A tibble: 35 x 33
##    PassengerId Survived Pclass Name   Sex     Age SibSp Parch Ticket  Fare
##          <int> <fct>    <fct>  <chr>  <fct> <dbl> <dbl> <dbl> <chr>  <dbl>
##  1           7 dead     1      McCar male    54.    0.    0. 17463   51.9
##  2          55 dead     1      Ostby male    65.    0.    1. 113509  62.0
##  3          93 dead     1      Chaff male    46.    1.    0. W.E.P  61.2
##  4          97 dead     1      Golds male    71.    0.    0. PC 17  34.7
##  5         111 dead     1      Porte male    47.    0.    0. 110465  52.0
##  6         138 dead     1      Futre male    37.    1.    0. 113803  53.1
##  7         171 dead     1      Van d male    61.    0.    0. 111240  33.5
##  8         175 dead     1      Smith male    56.    0.    0. 17764   30.7
##  9         178 dead     1      Isham fema   50.    0.    0. PC 17  28.7
## 10         246 dead     1      Minah male    44.    2.    0. 19928   90.0
## # ... with 25 more rows, and 23 more variables: Embarked <fct>, Set <chr>,
## #   Name.family <chr>, Name.title <chr>, Name.family.count <int>,
## #   Title <fct>, Ticket.number <int>, Cabin.Deck <fct>, Age.ctree <dbl>,
## #   Age.imputed <dbl>, Age.median <dbl>, HasCabin <lgl>, Relatives <dbl>,
## #   Ticket.number.count <int>, Group.size <dbl>, Group.survived <dbl>,
## #   Family.survived <dbl>, Survivors <dbl>, Survivors.percentage <dbl>,
## #   AnySurvivor <lgl>, Fare.per.Person <dbl>, Group.dim <fct>,
## #   Fare.group <fct>

full %>% filter(HasCabin==TRUE)

## # A tibble: 295 x 33
##    PassengerId Survived Pclass Name   Sex     Age SibSp Parch Ticket  Fare
##          <int> <fct>    <fct>  <chr>  <fct> <dbl> <dbl> <dbl> <chr>  <dbl>
##  1           2 survived 1      Cumin fema 38.0     1.    0. PC 17  71.3
##  2           4 survived 1      Futre fema 35.0     1.    0. 113803  53.1
##  3           7 dead     1      McCar male  54.0     0.    0. 17463   51.9
##  4          11 survived 3      Sands fema  4.00    1.    1. PP 95  16.7
##  5          12 survived 1      Bonne fema 58.0     0.    0. 113783  26.6
##  6          22 survived 2      Beesl male  34.0     0.    0. 248698  13.0
##  7          24 survived 1      Slope male  28.0     0.    0. 113788  35.5
##  8          28 dead     1      Fortu male  19.0     3.    2. 19950  263. 
##  9          32 survived 1      Spenc fema 35.5     1.    0. PC 17 147. 
## 10          53 survived 1      Harpe fema 49.0     1.    0. PC 17  76.7
## # ... with 285 more rows, and 23 more variables: Embarked <fct>,
## #   Set <chr>, Name.family <chr>, Name.title <chr>,
## #   Name.family.count <int>, Title <fct>, Ticket.number <int>,
## #   Cabin.Deck <fct>, Age.ctree <dbl>, Age.imputed <dbl>,
## #   Age.median <dbl>, HasCabin <lgl>, Relatives <dbl>,
## #   Ticket.number.count <int>, Group.size <dbl>, Group.survived <dbl>,
## #   Family.survived <dbl>, Survivors <dbl>, Survivors.percentage <dbl>,
## #   AnySurvivor <lgl>, Fare.per.Person <dbl>, Group.dim <fct>,
## #   Fare.group <fct>
…
